x1,x2
0.677655118424251,0.7643189999011446
0.9262829613289938,0.4097127825681848
0.9962577374576782,0.6960913832296967
0.20627382581949738,0.4586078175465269
0.41055614117813555,0.4664540236834631
0.900460987494017,0.9623476383117289
0.22899359339965542,0.4876731040718516
0.900745198983552,0.11721106397238201
0.7737796233963554,0.9638834699174315
0.47046899069998127,0.6817635685130905
0.6329474934232089,0.8829230730887452
0.43403980603417036,0.9094210012982737
0.7345915580916986,0.10517054895049616
0.687152713458173,0.8921016994069646
0.9484407929136365,0.22002295391181104
0.9476780670690224,0.388251290419676
0.44067656778799225,0.36901157394009054
0.43877902321273643,0.1195850954132136
0.08561101255331582,0.29932233191271096
0.2741910653096429,0.3699371690305602
0.9338163571139935,0.7507397882320861
0.8486351204593154,0.09624476627080836
0.5752916674543189,0.9586749724984844
0.25979339229742915,0.617908616704314
0.6911626555748014,0.863137063406312
0.9456140962205459,0.8675627452616561
0.9256268655034039,0.9248279922164768
0.9269546401575401,0.19897724069598732
0.8900499918027183,0.556355917149614
0.8456845304991283,0.9457844808150919
0.9877845037410284,0.23683763334882824
0.9531147740484491,0.73952939775164
0.30803307676931335,0.7378760287047288
0.7937082021651822,0.3826894864741137
0.07359080962053732,0.35062263386933723
0.08001297076791247,0.20477063333282586
0.2718096923278355,0.4905869038371182
0.15479047227643372,0.400858444219218
0.7803624806490215,0.07123302970158263
0.8320116093383756,0.12470069613712043
0.9004927924882897,0.9540883725370095
0.5509370670282241,0.028322449063652444
0.8367742794846091,0.10114796771935541
0.0016463639222632498,0.04182677438460858
0.5209327628443925,0.2912630879404521
0.28015244133195694,0.8617716324737039
0.7731549257019876,0.04354321493576885
0.048810573408980096,0.04645093606715367
0.31605034259770237,0.19619368589766406
0.12201829391430774,0.4766672920820425
